The contents of this folder were downloaded as follows:
    - On:       Friday, 03-Jul-20 17:39:40 CDT
    - Hash:     daadb32f19fe818cb9b0015243233fc81584844c11a48436385e87c050346559
    - From:     https://iweb.dl.sourceforge.net/project/swig/swigwin/swigwin-4.0.2/swigwin-4.0.2.zip

This file was created by chauto package generator.

